<svg width="480" height="50" viewBox="0 0 480 50" fill="none" xmlns="http://www.w3.org/2000/svg">
<rect width="480" height="50" rx="25" fill="url(#paint0_linear_4_15)"/>
<path d="M43.6659 31H47.6159V25.025C47.9909 25.1 48.5409 25.15 49.1159 25.15C51.6409 25.15 53.6659 24.575 55.0659 23.3C56.1159 22.4 56.6409 20.95 56.6409 19.35C56.6409 17.6 55.8409 16.2 54.7409 15.375C53.5909 14.525 51.8659 14 49.3909 14C46.7159 14 44.9159 14.175 43.6659 14.375V31ZM47.6159 17.1C47.9159 17.025 48.5159 16.975 49.4159 16.975C51.4659 16.975 52.6909 17.825 52.6909 19.4C52.6909 21.15 51.2659 22.125 49.1159 22.125C48.4409 22.125 47.9909 22.1 47.6159 22V17.1ZM69.5288 23.8C69.5288 20.8 68.0038 18.475 63.8038 18.475C61.4038 18.475 59.6538 19.1 58.7538 19.625L59.4788 22.125C60.3288 21.625 61.8038 21.15 63.1288 21.15C65.2788 21.15 65.5538 22.15 65.5538 22.675V22.8C60.7038 22.8 57.8538 24.375 57.8538 27.55C57.8538 29.425 59.3538 31.3 62.0288 31.3C63.6038 31.3 64.9538 30.775 65.8038 29.775H65.9038L66.1288 31H69.7288C69.6038 30.35 69.5288 29.2 69.5288 27.975V23.8ZM65.6788 26.35C65.6788 26.575 65.6538 26.825 65.6038 27.025C65.3538 27.825 64.4788 28.55 63.4288 28.55C62.4288 28.55 61.8038 28.05 61.8038 27.15C61.8038 25.775 63.3538 25.25 65.6788 25.275V26.35ZM76.7651 13.1H72.7901V31H76.7651V27.25L77.8651 25.975L81.2401 31H86.2401L80.6151 23.675L85.4651 18.775H80.5651L77.7901 22.475C77.4651 22.925 77.1151 23.425 76.8151 23.875H76.7651V13.1ZM98.6224 26.125C98.6974 25.875 98.7724 25.275 98.7724 24.7C98.7724 21.9 97.2974 18.475 92.8724 18.475C88.1474 18.475 86.2724 22.25 86.2724 25C86.2724 28.8 88.8474 31.3 93.2474 31.3C95.0474 31.3 96.6474 31.025 98.0474 30.45L97.5224 27.8C96.3474 28.2 95.1974 28.35 93.7974 28.35C91.9224 28.35 90.1974 27.6 90.0724 26.125H98.6224ZM90.0224 23.425C90.1474 22.475 90.8724 21.05 92.6724 21.05C94.6474 21.05 95.0474 22.725 95.0474 23.425H90.0224ZM101.684 16.45V18.775H100.009V21.75H101.684V26.475C101.684 28.15 102.034 29.375 102.734 30.15C103.359 30.8 104.459 31.3 105.784 31.3C106.909 31.3 107.884 31.125 108.409 30.925L108.359 27.925C107.984 28.025 107.759 28.05 107.134 28.05C105.859 28.05 105.559 27.275 105.559 25.775V21.75H108.409V18.775H105.559V15.425L101.684 16.45ZM116.298 31H120.248V25.025C120.623 25.1 121.173 25.15 121.748 25.15C124.273 25.15 126.298 24.575 127.698 23.3C128.748 22.4 129.273 20.95 129.273 19.35C129.273 17.6 128.473 16.2 127.373 15.375C126.223 14.525 124.498 14 122.023 14C119.348 14 117.548 14.175 116.298 14.375V31ZM120.248 17.1C120.548 17.025 121.148 16.975 122.048 16.975C124.098 16.975 125.323 17.825 125.323 19.4C125.323 21.15 123.898 22.125 121.748 22.125C121.073 22.125 120.623 22.1 120.248 22V17.1ZM131.482 31H135.457V24.825C135.457 24.575 135.457 24.325 135.507 24.1C135.732 22.925 136.682 22.1 138.307 22.1C138.782 22.1 139.132 22.15 139.457 22.225V18.55C139.132 18.475 138.957 18.475 138.607 18.475C137.332 18.475 135.657 19.25 135.007 21.2H134.907L134.782 18.775H131.382C131.457 19.8 131.482 20.925 131.482 22.925V31ZM147.542 31.3C151.292 31.3 154.567 29 154.567 24.75C154.567 21.1 151.817 18.475 147.792 18.475C143.342 18.475 140.642 21.2 140.642 25C140.642 28.925 143.742 31.3 147.517 31.3H147.542ZM147.617 28.5C145.867 28.5 144.792 26.975 144.792 24.9C144.792 23.05 145.617 21.275 147.642 21.275C149.592 21.275 150.417 23.025 150.417 24.875C150.417 27.2 149.267 28.5 147.642 28.5H147.617ZM161.442 31V21.75H163.967V18.775H161.392V18.125C161.392 16.9 161.967 15.925 163.267 15.925C163.817 15.925 164.217 16 164.567 16.1L164.667 13.05C164.092 12.9 163.442 12.8 162.617 12.8C161.517 12.8 160.142 13.1 159.092 14.05C157.967 15.075 157.467 16.825 157.467 18.325V18.775H155.867V21.75H157.467V31H161.442ZM177.358 26.125C177.433 25.875 177.508 25.275 177.508 24.7C177.508 21.9 176.033 18.475 171.608 18.475C166.883 18.475 165.008 22.25 165.008 25C165.008 28.8 167.583 31.3 171.983 31.3C173.783 31.3 175.383 31.025 176.783 30.45L176.258 27.8C175.083 28.2 173.933 28.35 172.533 28.35C170.658 28.35 168.933 27.6 168.808 26.125H177.358ZM168.758 23.425C168.883 22.475 169.608 21.05 171.408 21.05C173.383 21.05 173.783 22.725 173.783 23.425H168.758ZM179.194 30.375C180.269 30.9 181.769 31.3 183.544 31.3C187.394 31.3 189.169 29.5 189.169 27.3C189.144 25.375 188.069 24.225 185.594 23.5C183.944 23.05 183.394 22.75 183.394 22.15C183.394 21.5 183.969 21.175 184.944 21.175C186.119 21.175 187.344 21.625 187.919 21.925L188.594 19.225C187.819 18.85 186.419 18.475 184.844 18.475C181.594 18.475 179.544 20.225 179.544 22.55C179.519 24.075 180.644 25.5 183.344 26.25C184.894 26.65 185.294 26.95 185.294 27.575C185.294 28.175 184.794 28.55 183.519 28.55C182.319 28.55 180.694 28.025 179.919 27.55L179.194 30.375ZM195.662 31V18.775H191.687V31H195.662ZM193.687 17.25C195.012 17.25 195.812 16.375 195.812 15.325C195.787 14.225 195.012 13.375 193.687 13.375C192.362 13.375 191.562 14.225 191.562 15.325C191.562 16.375 192.362 17.25 193.662 17.25H193.687ZM205.062 31.3C208.812 31.3 212.087 29 212.087 24.75C212.087 21.1 209.337 18.475 205.312 18.475C200.862 18.475 198.162 21.2 198.162 25C198.162 28.925 201.262 31.3 205.037 31.3H205.062ZM205.137 28.5C203.387 28.5 202.312 26.975 202.312 24.9C202.312 23.05 203.137 21.275 205.162 21.275C207.112 21.275 207.937 23.025 207.937 24.875C207.937 27.2 206.787 28.5 205.162 28.5H205.137ZM214.587 31H218.562V24.075C218.562 23.775 218.587 23.425 218.687 23.2C218.962 22.5 219.637 21.65 220.862 21.65C222.362 21.65 223.037 22.75 223.037 24.525V31H227.012V23.95C227.012 20.075 224.812 18.475 222.262 18.475C219.962 18.475 218.662 19.825 218.212 20.55H218.112L217.937 18.775H214.487C214.537 19.85 214.587 21.175 214.587 22.75V31ZM241.135 23.8C241.135 20.8 239.61 18.475 235.41 18.475C233.01 18.475 231.26 19.1 230.36 19.625L231.085 22.125C231.935 21.625 233.41 21.15 234.735 21.15C236.885 21.15 237.16 22.15 237.16 22.675V22.8C232.31 22.8 229.46 24.375 229.46 27.55C229.46 29.425 230.96 31.3 233.635 31.3C235.21 31.3 236.56 30.775 237.41 29.775H237.51L237.735 31H241.335C241.21 30.35 241.135 29.2 241.135 27.975V23.8ZM237.285 26.35C237.285 26.575 237.26 26.825 237.21 27.025C236.96 27.825 236.085 28.55 235.035 28.55C234.035 28.55 233.41 28.05 233.41 27.15C233.41 25.775 234.96 25.25 237.285 25.275V26.35ZM244.397 31H248.372V13.1H244.397V31ZM272.792 21.25H265.917V24.325H268.892V27.725C268.542 27.875 267.667 28 266.617 28C262.967 28 260.567 25.75 260.567 22.45C260.567 19.05 263.192 17.2 266.692 17.2C268.892 17.2 270.192 17.575 271.267 18.025L272.142 14.9C271.217 14.45 269.292 13.975 266.817 13.975C260.642 13.975 256.367 17.375 256.367 22.775C256.367 25.125 257.242 27.225 258.817 28.725C260.517 30.325 262.992 31.175 266.467 31.175C269.017 31.175 271.467 30.55 272.792 30.1V21.25ZM282.162 31.3C285.912 31.3 289.187 29 289.187 24.75C289.187 21.1 286.437 18.475 282.412 18.475C277.962 18.475 275.262 21.2 275.262 25C275.262 28.925 278.362 31.3 282.137 31.3H282.162ZM282.237 28.5C280.487 28.5 279.412 26.975 279.412 24.9C279.412 23.05 280.237 21.275 282.262 21.275C284.212 21.275 285.037 23.025 285.037 24.875C285.037 27.2 283.887 28.5 282.262 28.5H282.237ZM297.884 31.3C301.634 31.3 304.909 29 304.909 24.75C304.909 21.1 302.159 18.475 298.134 18.475C293.684 18.475 290.984 21.2 290.984 25C290.984 28.925 294.084 31.3 297.859 31.3H297.884ZM297.959 28.5C296.209 28.5 295.134 26.975 295.134 24.9C295.134 23.05 295.959 21.275 297.984 21.275C299.934 21.275 300.759 23.025 300.759 24.875C300.759 27.2 299.609 28.5 297.984 28.5H297.959ZM319.957 22.325C319.957 20.4 320.007 19.45 320.057 18.775H316.607L316.507 20.3H316.457C315.782 19.275 314.657 18.475 312.732 18.475C309.482 18.475 306.707 21 306.707 24.9C306.707 28.6 309.232 30.875 312.332 30.875C313.907 30.875 315.182 30.25 316.007 29.175H316.057V29.975C316.057 32.375 314.432 33.3 312.582 33.3C311.007 33.3 309.457 32.75 308.657 32.25L307.832 35.25C309.007 35.925 310.907 36.3 312.682 36.3C314.482 36.3 316.482 36 317.982 34.75C319.482 33.45 319.957 31.325 319.957 29.075V22.325ZM315.982 25.225C315.982 25.55 315.957 25.95 315.882 26.25C315.632 27.2 314.732 28 313.557 28C311.757 28 310.782 26.475 310.782 24.825C310.782 22.525 312.082 21.375 313.557 21.375C314.782 21.375 315.632 22.125 315.932 23.275C315.957 23.475 315.982 23.7 315.982 23.925V25.225ZM323.254 31H327.229V13.1H323.254V31ZM342.079 26.125C342.154 25.875 342.229 25.275 342.229 24.7C342.229 21.9 340.754 18.475 336.329 18.475C331.604 18.475 329.729 22.25 329.729 25C329.729 28.8 332.304 31.3 336.704 31.3C338.504 31.3 340.104 31.025 341.504 30.45L340.979 27.8C339.804 28.2 338.654 28.35 337.254 28.35C335.379 28.35 333.654 27.6 333.529 26.125H342.079ZM333.479 23.425C333.604 22.475 334.329 21.05 336.129 21.05C338.104 21.05 338.504 22.725 338.504 23.425H333.479ZM350.111 30.925C351.136 31.075 352.686 31.2 354.961 31.2C358.586 31.2 361.661 30.45 363.636 28.825C365.311 27.45 366.561 25.275 366.561 22.1C366.561 19.2 365.361 17.2 363.511 15.9C361.711 14.625 359.411 14 355.836 14C353.736 14 351.711 14.125 350.111 14.375V30.925ZM354.086 17.2C354.461 17.125 355.136 17.025 356.186 17.025C359.911 17.025 362.336 18.775 362.336 22.3C362.336 26.125 359.761 28.175 355.661 28.125C355.111 28.125 354.461 28.125 354.086 28.05V17.2ZM373.127 31V18.775H369.152V31H373.127ZM371.152 17.25C372.477 17.25 373.277 16.375 373.277 15.325C373.252 14.225 372.477 13.375 371.152 13.375C369.827 13.375 369.027 14.225 369.027 15.325C369.027 16.375 369.827 17.25 371.127 17.25H371.152ZM375.703 30.375C376.778 30.9 378.278 31.3 380.053 31.3C383.903 31.3 385.678 29.5 385.678 27.3C385.653 25.375 384.578 24.225 382.103 23.5C380.453 23.05 379.903 22.75 379.903 22.15C379.903 21.5 380.478 21.175 381.453 21.175C382.628 21.175 383.853 21.625 384.428 21.925L385.103 19.225C384.328 18.85 382.928 18.475 381.353 18.475C378.103 18.475 376.053 20.225 376.053 22.55C376.028 24.075 377.153 25.5 379.853 26.25C381.403 26.65 381.803 26.95 381.803 27.575C381.803 28.175 381.303 28.55 380.028 28.55C378.828 28.55 377.203 28.025 376.428 27.55L375.703 30.375ZM388.195 36H392.17V29.825H392.22C392.82 30.725 394.17 31.3 395.795 31.3C398.745 31.3 401.895 29.15 401.895 24.675C401.895 20.6 399.045 18.475 396.37 18.475C394.37 18.475 392.82 19.2 391.77 20.575H391.72L391.545 18.775H388.095C388.145 19.925 388.195 21.3 388.195 22.95V36ZM392.17 24.35C392.17 24.15 392.195 23.95 392.245 23.725C392.495 22.45 393.645 21.525 394.895 21.525C396.845 21.525 397.82 23.075 397.82 24.9C397.82 27.025 396.645 28.3 394.845 28.3C393.495 28.3 392.47 27.325 392.22 26.225C392.17 25.975 392.17 25.75 392.17 25.5V24.35ZM404.406 31H408.381V13.1H404.406V31ZM422.532 23.8C422.532 20.8 421.007 18.475 416.807 18.475C414.407 18.475 412.657 19.1 411.757 19.625L412.482 22.125C413.332 21.625 414.807 21.15 416.132 21.15C418.282 21.15 418.557 22.15 418.557 22.675V22.8C413.707 22.8 410.857 24.375 410.857 27.55C410.857 29.425 412.357 31.3 415.032 31.3C416.607 31.3 417.957 30.775 418.807 29.775H418.907L419.132 31H422.732C422.607 30.35 422.532 29.2 422.532 27.975V23.8ZM418.682 26.35C418.682 26.575 418.657 26.825 418.607 27.025C418.357 27.825 417.482 28.55 416.432 28.55C415.432 28.55 414.807 28.05 414.807 27.15C414.807 25.775 416.357 25.25 418.682 25.275V26.35ZM424.05 18.775L428.9 29.925C429.075 30.275 429.1 30.475 429.1 30.625C429.1 30.775 429 30.975 428.875 31.175C428.475 31.8 427.75 32.45 427.125 32.725C426.5 33.025 425.925 33.175 425.45 33.25L426.225 36.575C427.325 36.475 428.775 36.1 430.175 34.975C431.575 33.875 432.85 32.075 435 26.375L437.95 18.775H433.6L431.925 24.65C431.725 25.375 431.5 26.35 431.3 27.025H431.225C431.025 26.4 430.75 25.4 430.525 24.675L428.5 18.775H424.05Z" fill="white"/>
<defs>
<linearGradient id="paint0_linear_4_15" x1="0" y1="25" x2="480.016" y2="25" gradientUnits="userSpaceOnUse">
<stop stop-color="#A82173"/>
<stop offset="1" stop-color="#EB2027"/>
</linearGradient>
</defs>
</svg>
